Introduction to the voteogram package
…
sen$votes
#> # A tibble: 100 x 11
#>    bioguide_id role_id member_name        sort_name  party state_abbrev
#>  * <chr>         <int> <chr>              <chr>      <chr> <chr>       
#>  1 A000360         526 Lamar  Alexander   Alexander  R     TN          
#>  2 B001230         481 Tammy Baldwin      Baldwin    D     WI          
#>  3 B001261         498 John Barrasso      Barrasso   R     WY          
#>  4 B001267         561 Michael Bennet     Bennet     D     CO          
#>  5 B001277         535 Richard Blumenthal Blumenthal D     CT          
#>  6 B000575         547 Roy  Blunt         Blunt      R     MO          
#>  7 B001288         507 Cory  Booker       Booker     D     NJ          
#>  8 B001236         551 John  Boozman      Boozman    R     AR          
#>  9 B000944         480 Sherrod  Brown     Brown      D     OH          
#> 10 B001135         555 Richard M. Burr    Burr       R     NC          
#> # ... with 90 more rows, and 5 more variables: display_state_abbrev <chr>,
#> #   district <chr>, position <chr>, dw_nominate <lgl>, pp_id <chr>
…
fortify(rep)
#> # A tibble: 435 x 11
#>    bioguide_id role_id member_name        sort_name party state_abbrev
#>  * <chr>         <int> <chr>              <chr>     <chr> <chr>       
#>  1 A000374         274 Ralph Abraham      Abraham   R     LA          
#>  2 A000370         294 Alma  Adams        Adams     D     NC          
#>  3 A000055         224 Robert B. Aderholt Aderholt  R     AL          
#>  4 A000371         427 Pete Aguilar       Aguilar   D     CA          
#>  5 A000372         268 Rick Allen         Allen     R     GA          
#>  6 A000367         131 Justin Amash       Amash     R     MI          
#>  7 A000369         388 Mark Amodei        Amodei    R     NV          
#>  8 A000375         320 Jodey Arrington    Arrington R     TX          
#>  9 B001291         590 Brian Babin        Babin     R     TX          
#> 10 B001298         206 Don Bacon          Bacon     R     NE          
#> # ... with 425 more rows, and 5 more variables:
#> #   display_state_abbrev <chr>, district <int>, position <chr>,
#> #   dw_nominate <lgl>, pp_id <chr>
…
